R: Aplicando Data Visualization com ggplot2
…
Perfil do cliente

Como está distribuído o público por idade? Existe um grupo que sobressai relacionado a região e ao sexo biológico?

Dos clientes que participam do programa de cashback, qual a 
proporção por região do país? Quais são as 3 principais regiões? É 
preciso reforçar a campanha de adesão em quais delas?

Tratamento dos dados:

Dados de Vendas

vendas

# A tibble: 6,169 × 8
   ID_compra data       horario categoria       preco_unitario quantidade  frete
       <dbl> <date>     <time>  <chr>                    <dbl>      <dbl>  <dbl>
 1         6 2023-01-03 20:40   Tecnologia               899.           4 7.13e2
 2         5 2023-01-03 21:48   Casa/Móveis              116.           1 0     
 3         9 2023-01-03 17:08   Beleza/Saúde              68.9          2 1.38e1
 4         4 2023-01-03 14:29   Casa/Móveis               80.9          5 4.05e1
 5         8 2023-01-03 18:02   Beleza/Saúde             165            4 0     
 6         2 2023-01-03 18:42   Tecnologia              2028.           5 1.72e3
 7         3 2023-01-03 23:47   Supermercado              84.9          5 0     
 8         1 2023-01-03 00:13   Eletrodoméstic…         2170.           1 1.39e2
 9         7 2023-01-03 17:40   Livros                    75.9          5 1.90e1
10        11 2023-01-04 21:50   Casa/Móveis               13.9          5 3.48e0
# ℹ 6,159 more rows
# ℹ 1 more variable: metodo_pagamento <chr>

Transformando dados categóricos que se repetem em factor

vendas <- vendas %>% mutate_if(is.character, as.factor) 
vendas

# A tibble: 6,169 × 8
   ID_compra data       horario categoria       preco_unitario quantidade  frete
       <dbl> <date>     <time>  <fct>                    <dbl>      <dbl>  <dbl>
 1         6 2023-01-03 20:40   Tecnologia               899.           4 7.13e2
 2         5 2023-01-03 21:48   Casa/Móveis              116.           1 0     
 3         9 2023-01-03 17:08   Beleza/Saúde              68.9          2 1.38e1
 4         4 2023-01-03 14:29   Casa/Móveis               80.9          5 4.05e1
 5         8 2023-01-03 18:02   Beleza/Saúde             165            4 0     
 6         2 2023-01-03 18:42   Tecnologia              2028.           5 1.72e3
 7         3 2023-01-03 23:47   Supermercado              84.9          5 0     
 8         1 2023-01-03 00:13   Eletrodoméstic…         2170.           1 1.39e2
 9         7 2023-01-03 17:40   Livros                    75.9          5 1.90e1
10        11 2023-01-04 21:50   Casa/Móveis               13.9          5 3.48e0
# ℹ 6,159 more rows
# ℹ 1 more variable: metodo_pagamento <fct>

Adicionando a coluna total

vendas <- vendas %>% mutate(total = preco_unitario * quantidade + frete) 
vendas

# A tibble: 6,169 × 9
   ID_compra data       horario categoria       preco_unitario quantidade  frete
       <dbl> <date>     <time>  <fct>                    <dbl>      <dbl>  <dbl>
 1         6 2023-01-03 20:40   Tecnologia               899.           4 7.13e2
 2         5 2023-01-03 21:48   Casa/Móveis              116.           1 0     
 3         9 2023-01-03 17:08   Beleza/Saúde              68.9          2 1.38e1
 4         4 2023-01-03 14:29   Casa/Móveis               80.9          5 4.05e1
 5         8 2023-01-03 18:02   Beleza/Saúde             165            4 0     
 6         2 2023-01-03 18:42   Tecnologia              2028.           5 1.72e3
 7         3 2023-01-03 23:47   Supermercado              84.9          5 0     
 8         1 2023-01-03 00:13   Eletrodoméstic…         2170.           1 1.39e2
 9         7 2023-01-03 17:40   Livros                    75.9          5 1.90e1
10        11 2023-01-04 21:50   Casa/Móveis               13.9          5 3.48e0
# ℹ 6,159 more rows
# ℹ 2 more variables: metodo_pagamento <fct>, total <dbl>

Dados dos Clientes

clientes

# A tibble: 6,169 × 9
   ID_compra ID_cliente cidade      uf      regiao idade sexo_biologico cashback
       <dbl>      <dbl> <chr>       <chr>   <chr>  <dbl> <chr>          <chr>   
 1       904       8972 Natal       Rio Gr… Norde…    49 Masculino      Não     
 2      4613       5120 São Paulo   São Pa… Sudes…    49 Feminino       Não     
 3      5579       1847 São Paulo   São Pa… Sudes…    24 Feminino       Não     
 4      2405       2846 São Paulo   São Pa… Sudes…    38 Feminino       Sim     
 5      2485       2715 Salvador    Bahia   Norde…    30 Feminino       Não     
 6       756       9555 João Pessoa Paraíba Norde…    46 Feminino       Não     
 7      3020       3793 Brasília    Distri… Centr…    32 Masculino      Sim     
 8      2390       4903 São Paulo   São Pa… Sudes…    26 Masculino      Não     
 9      3957       3413 Salvador    Bahia   Norde…    30 Feminino       Não     
10      5142       3556 Salvador    Bahia   Norde…    28 Feminino       Não     
# ℹ 6,159 more rows
# ℹ 1 more variable: avaliacao_compra <dbl>
…
2 - Qual foi o desempenho das vendas ao longo dos meses em 2023?

Criando coluna de mês

vendas <- vendas %>% mutate(mes = format(data, "%m")) 
vendas

# A tibble: 6,169 × 10
   ID_compra data       horario categoria       preco_unitario quantidade  frete
       <dbl> <date>     <time>  <fct>                    <dbl>      <dbl>  <dbl>
 1         6 2023-01-03 20:40   Tecnologia               899.           4 7.13e2
 2         5 2023-01-03 21:48   Casa/Móveis              116.           1 0     
 3         9 2023-01-03 17:08   Beleza/Saúde              68.9          2 1.38e1
 4         4 2023-01-03 14:29   Casa/Móveis               80.9          5 4.05e1
 5         8 2023-01-03 18:02   Beleza/Saúde             165            4 0     
 6         2 2023-01-03 18:42   Tecnologia              2028.           5 1.72e3
 7         3 2023-01-03 23:47   Supermercado              84.9          5 0     
 8         1 2023-01-03 00:13   Eletrodoméstic…         2170.           1 1.39e2
 9         7 2023-01-03 17:40   Livros                    75.9          5 1.90e1
10        11 2023-01-04 21:50   Casa/Móveis               13.9          5 3.48e0
# ℹ 6,159 more rows
# ℹ 3 more variables: metodo_pagamento <fct>, total <dbl>, mes <chr>
…
4 - Como está distribuído o público por idade? Existe um grupo que sobressai relacionado a região e ao sexo biológico?

Contando clientes únicos

clientes %>% count(ID_cliente, sort = T)

# A tibble: 4,453 × 2
   ID_cliente     n
        <dbl> <int>
 1       5267     7
 2       4421     6
 3       5145     6
 4       9864     6
 5       1442     5
 6       6698     5
 7       9363     5
 8       1025     4
 9       1172     4
10       1530     4
# ℹ 4,443 more rows

Criando a tabela com clientes únicos

clientes_unicos <- clientes %>% distinct(ID_cliente, .keep_all = T) 
clientes_unicos

# A tibble: 4,453 × 9
   ID_compra ID_cliente cidade      uf      regiao idade sexo_biologico cashback
       <dbl>      <dbl> <fct>       <fct>   <fct>  <dbl> <fct>          <fct>   
 1       904       8972 Natal       Rio Gr… Norde…    49 Masculino      Não     
 2      4613       5120 São Paulo   São Pa… Sudes…    49 Feminino       Não     
 3      5579       1847 São Paulo   São Pa… Sudes…    24 Feminino       Não     
 4      2405       2846 São Paulo   São Pa… Sudes…    38 Feminino       Sim     
 5      2485       2715 Salvador    Bahia   Norde…    30 Feminino       Não     
 6       756       9555 João Pessoa Paraíba Norde…    46 Feminino       Não     
 7      3020       3793 Brasília    Distri… Centr…    32 Masculino      Sim     
 8      2390       4903 São Paulo   São Pa… Sudes…    26 Masculino      Não     
 9      3957       3413 Salvador    Bahia   Norde…    30 Feminino       Não     
10      5142       3556 Salvador    Bahia   Norde…    28 Feminino       Não     
# ℹ 4,443 more rows
# ℹ 1 more variable: avaliacao_compra <dbl>
…
